440201 14230 449
902229 299918 525
393477 760806 509
403906 676729 509
527460 865577 525
98870 741689 509
196089 84946 383
384664 150596 443
447494 707959 509
503798 546514 470
413325 362223 449
826846 515306 509
141837 277005 443
737131 597681 509
324125 590306 470
206424 773302 509
896466 396711 525
915756 721554 525
431147 72336 449
23370 710250 509
930976 970308 507
103471 63467 351
941841 748532 525
946379 59997 525
589501 366695 470
110928 662916 509
937276 465155 525
849102 4187 525
680742 539682 509
161890 11633 383
680522 996492 525
914187 472374 525
524846 722189 509
340239 928760 525
181571 846383 525
546573 981336 525
129438 747860 509
864940 612475 525
205070 823377 509
561971 333694 470
974568 940511 458
979547 421155 525
733494 188589 509
839091 823429 525
191662 392179 443
944535 127205 525
92744 921053 525
744995 554554 509
612192 81196 470
628742 546269 509
697995 281995 509
685020 728710 504
98751 993868 525
820283 478196 509
917856 264 525
517234 813316 509
681768 645635 442
811583 111459 509
71175 819844 509
287087 296955 389
331611 607391 470
652442 287232 509
360076 829159 509
497454 565458 470
491545 654737 509
735462 950867 525
877220 955264 507
90824 107931 354
769944 75743 509
822164 281841 509
313629 831592 509
228397 949396 525
420572 545351 470
754306 150960 509
951479 106694 525
98541 760740 509
42611 51270 314
45107 934799 525
546932 671786 509
988516 242854 525
231005 268770 407
7877 221889 386
964656 627880 525
271623 37789 443
535581 733356 509
104077 418631 449
87444 619065 470
357088 679555 509
994356 818934 525
709528 174691 509
396873 350045 436
25147 159964 383
397986 507202 449
434629 333496 449
511155 821009 509
511402 425938 444
821942 400233 509
328033 599810 470
989641 746289 525
792016 831063 468
993221 725668 525
38085 120710 354
35531 161499 383
129036 289987 443
37562 231110 443
677433 392442 509
107689 712907 509
376119 126927 443
409709 941147 525
899183 612679 525
587775 745902 509
317342 806120 509
704208 688924 442
244361 815985 509
290950 828515 509
884883 504966 525
193776 100921 383
420137 582501 470
86529 743913 509
560886 7535 470
676964 926186 525
336612 66798 443
656535 418835 509
271335 502230 449
837069 361607 509
300301 616955 470
963042 902829 507
500062 293461 449
581436 567672 390
644700 279162 509
316349 910979 525
319991 344372 384
318270 702335 509
222885 699752 509
41893 989161 525
604384 540912 452
120342 337937 443
585927 445864 470
543335 85582 470
269850 494172 449
220976 606775 470
953410 680713 525
802638 806646 375
683849 380665 509
638576 564013 509
516611 97634 470
736011 996981 525
901805 656524 525
109364 313612 443
324987 674524 509
715972 65210 509
356115 737951 509
724810 935922 525
186117 460843 449
474813 898892 525
388395 442838 449
743632 389672 509
729594 73112 509
237549 1836 443
430760 201580 449
829098 496727 509
280990 806058 509
593873 844269 525
429392 700927 509
821773 747478 468
246493 259970 363
729235 170018 509
442973 776967 509
974478 531801 525
587235 91256 470
845053 233066 525
38095 783225 509
949280 163141 525
545902 459470 470
778533 7514 509
481997 660037 509
773464 138270 509
777137 458521 509
613456 724804 509
203307 25801 383
671352 760030 504
185082 116809 383
398104 176414 443
616182 944928 525
722753 654941 504
410243 454 449
188204 729648 509
133223 582631 470
287140 151348 443
328313 919681 525
952078 698822 525
581985 824658 509
135152 88703 354
401045 34589 443
722099 467043 509
469057 77964 449
327950 92270 443
738243 273321 509
612470 600364 403
22176 226248 386
397559 21103 443
772921 389133 509
547112 395933 470
644976 95638 509
870540 769181 525
907199 420868 525
331414 441621 449
341296 609188 470
987086 942823 458
110867 794698 509
618754 965969 525
438531 499972 444
374371 121816 443
715292 294023 509
997255 418079 525
550762 364081 470
447130 947227 525
317926 638130 509
552458 950648 525
873097 541982 525
918591 556616 525
490081 287148 449
464479 900819 525
972057 103688 525
448432 916020 525
245802 859852 525
364404 550123 470
219948 326376 443
81346 593492 470
623662 858118 525
487296 140786 449
380361 841346 525
896575 915751 476
849842 349160 525
341449 449641 449
135875 695973 509
279353 813435 509
177770 62425 383
768540 608018 509
949457 477072 525
178579 475965 449
724063 787221 468
248464 695365 509
388369 829934 509
916061 573419 525
131641 370279 443
982169 336091 525
104139 130114 354
947952 215285 525
607554 947220 525
8582 507496 449
185651 696684 509
512640 155980 470
