464072 898348 525
750176 511339 509
441942 916694 525
588562 27928 470
457874 168658 449
165897 922621 525
229991 15944 386
566097 588734 434
686860 726434 504
222540 180372 386
265349 722280 509
239281 981959 525
298313 647713 509
618493 40991 470
433143 557224 470
669728 472576 509
658517 297134 509
992222 920356 507
794921 653469 504
536512 705660 509
562031 227142 470
698140 207948 509
59452 291256 443
617698 618263 372
172165 480623 449
247650 373735 441
211280 586903 470
268755 361265 441
600374 32236 470
595557 692949 509
470260 78791 449
690319 326951 509
753854 335243 509
884948 549458 525
758465 727324 424
702996 764235 504
442795 162967 449
385835 705855 509
296792 984347 525
713383 505745 509
533276 747762 509
385843 730931 509
815106 141000 509
547640 425102 470
370686 819381 509
920966 983299 507
945491 607768 525
172703 834500 509
727015 272118 509
516456 589164 452
195031 282528 443
306150 720749 509
148658 525375 470
584221 354330 470
949800 163005 525
976174 376927 525
985039 69012 525
275130 79911 443
598012 650497 509
223542 459395 449
993603 61007 525
963821 776721 525
650854 94769 509
657157 920974 525
503258 65212 449
388586 628766 509
548504 208271 470
886091 318609 525
229791 992226 525
216323 736171 509
900950 957066 507
593846 477941 470
522730 687189 509
680414 853347 525
530050 798182 509
907995 179861 525
774963 93495 509
889793 555619 525
569568 196900 470
162706 334059 443
724809 814261 468
832948 636938 504
33154 890625 525
337419 643902 509
683974 935160 525
688341 304198 509
760388 240033 509
236588 379498 441
746565 457501 509
52501 677974 509
400495 582789 470
217279 920341 525
974499 88932 525
102719 522632 470
694374 715862 504
712724 915778 525
217607 626311 470
942964 234675 525
725204 608528 509
575314 216223 470
404924 570521 470
369348 998872 525
982110 596370 525
200727 910315 525
172269 165870 352
129020 136735 344
393214 302227 441
91906 671647 509
476016 96307 449
362206 960405 525
812654 155426 509
568010 130494 470
140608 249315 443
304574 340064 384
338310 819639 509
59043 815382 509
876248 29979 525
735502 888970 525
208223 278588 443
905310 417062 525
564362 659301 509
105168 497448 449
425646 188373 449
955269 113096 525
497400 894057 525
376403 365430 392
74361 315418 443
580759 857192 525
140852 888159 525
495843 865775 525
96848 10056 351
544506 258109 470
498695 189645 449
896084 446354 525
894041 969259 507
534381 132590 470
547799 3510 470
508106 265171 449
927188 866160 476
386167 911370 525
412803 42128 449
820637 515183 509
209214 974007 525
115383 421154 449
703912 233892 509
169980 348301 443
634606 423579 509
408236 452390 449
133501 704120 509
55714 574733 470
52014 373922 443
232956 374611 441
739444 613639 509
901132 261272 525
974189 570831 525
647537 478376 509
146422 178353 383
274068 497431 449
772816 528737 509
600051 594167 372
180559 394097 443
265151 511716 449
872605 552474 525
362408 479792 449
227947 643916 509
953754 272701 525
165812 392933 443
110887 611956 470
289150 196157 443
788531 634601 504
755668 233065 509
5600 274958 443
942357 299007 525
521653 661483 509
33131 992903 525
992400 982342 427
487625 834866 509
902429 586596 525
741890 601827 509
767805 960059 525
532162 788907 509
298657 233266 407
418872 170302 449
70312 271809 443
503729 90251 449
868819 773617 525
582863 572325 390
55821 606825 470
788904 893247 525
310360 442949 449
655392 505883 509
873576 517 525
890691 825206 525
367319 94699 443
912265 937835 476
205152 770625 509
328304 397162 441
942889 446457 525
869493 831647 525
959097 974573 458
366644 909322 525
368322 547286 470
153150 892800 525
47851 818469 509
780697 748450 468
337647 785907 509
495073 980229 525
841758 699133 525
513792 696973 509
619093 166599 470
281999 204631 443
794548 357700 509
336115 658252 509
563926 787839 509
388166 484329 449
56047 488155 449
701120 2136 509
334739 590266 470
153742 410293 449
147217 574412 470
805134 460333 509
296831 11616 443
