566227 681859
492937 625726
511568 543679
488049 872013
678474 406028
866720 321559
950121 429731
348880 923651
278832 997725
836209 792633
521870 498670
657097 87974
50082 60524
601416 78016
154182 990703
384350 607161
531442 625324
611333 784622
917501 917953
914130 266736
518695 926244
68664 53741
51389 479382
501214 551918
257464 231177
217487 591749
8119 669815
716454 252800
13687 350229
59411 409854
383206 572589
974157 997551
92002 844151
918957 550448
32348 422791
277000 898659
933830 652205
892136 515117
695101 226948
355658 799280
738614 297422
377563 35783
303476 484463
852066 357200
58437 37017
990051 432176
603877 249402
13609 311565
191367 510615
869633 334841
141195 687685
58237 673271
442187 88968
107200 314123
41317 680750
386061 245231
774860 869039
435472 121914
564803 973902
441014 463369
895589 758986
125437 7479
851902 974928
647279 308445
236517 325359
238382 476068
966470 824587
167145 468152
368265 358793
26668 233017
612648 833505
929945 872702
70975 351967
236026 527296
196030 300904
936757 67089
27417 47708
773234 122879
23441 78145
538378 190462
806329 256540
213109 457249
505166 997355
702678 780915
374237 715408
679018 331843
631264 308776
412882 504736
418157 825474
925739 537316
83686 167187
428 307708
96904 883996
703491 56511
447928 172320
952290 330983
49612 486250
479758 534651
10604 651532
808918 950926
734572 701651
579128 744368
693984 25663
194105 861916
912308 509140
949303 137326
305088 369857
233165 780912
810879 203827
302127 487176
449903 141869
889786 765884
304776 906075
787701 941078
727968 496910
520258 724423
577662 28621
399551 30682
518554 512560
513080 163077
102371 557756
472803 794110
427875 153557
19964 17273
497336 170216
441547 296236
991936 175514
573667 288232
273881 879570
402780 698497
318277 228537
774903 471434
356709 465375
172781 614253
786286 102368
794693 804327
994119 634010
785054 621215
13123 297552
21422 384012
827180 404262
974350 961873
871336 253992
157144 852500
999514 342069
853799 971099
245266 542130
785739 129309
651767 563120
731714 695350
465215 965392
810475 530300
580372 82442
148178 606116
364444 873469
121694 649914
284823 509397
499674 466672
737182 206372
405947 835721
662119 965116
632207 275178
143388 771622
463236 719274
874943 93847
890618 315906
955383 391988
407019 186691
372850 798192
501576 72297
304446 874068
811377 269208
123067 490356
622189 827267
223569 228241
494389 563488
327725 856287
643411 4695
363788 316414
429158 800336
982720 34390
29102 271862
522023 546969
220645 638971
825132 239681
694896 811988
876482 740507
393191 661979
388569 920660
117515 649176
221096 687313
17166 577329
305307 568880
969221 692692
308004 342235
650227 424761
392494 677002
708948 240931
969435 617175
260657 123166
951253 56957
388384 83526
988969 571449
620117 73636
569178 706452
81645 190522
438974 674415
319180 487701
963024 114660
623497 916386
422008 393475
730668 381075
826502 544954
714337 662094
739157 381567
222894 279003
156923 549340
192935 325660
699804 541088
516886 119520
205101 490141
437893 444848
993835 450464
469538 420581
709298 768580
174352 676971
882472 800372
299257 915488
674497 709498
447154 566903
750518 598131
94295 792085
143810 823650
416833 211442
823650 778654
658631 460778
501426 597868
862960 393758
139773 421034
909416 173383
270027 543856
919849 476041
110733 450792
122376 316626
113946 255007
