829336 603671 509
457279 662304 509
284571 297425 389
267888 105345 443
48686 56720 340
45456 7110 324
521264 211034 470
106989 746070 509
821000 154850 509
425520 561680 470
322808 833776 509
920857 25961 525
387224 146797 443
32158 339136 443
885625 864802 432
507643 724872 509
46058 52139 314
78152 397913 443
610837 194891 470
31972 279862 443
507180 917571 525
921412 788981 525
493446 397950 449
968558 347566 525
473624 838072 525
189909 635898 509
884327 74863 525
589034 419112 470
599292 695333 509
624001 777815 509
62596 689093 509
295518 419723 449
787558 867162 525
46859 62784 340
885385 620509 525
3157 764373 509
472354 25972 449
59471 565557 470
660802 504043 509
352175 428469 449
398699 876298 525
830029 883055 525
600264 382453 470
739788 995643 525
595149 414849 470
122576 439284 449
870257 783328 525
432143 919556 525
220916 849258 525
199633 658857 509
391995 54229 443
485223 496820 426
348212 671797 509
164096 620360 470
196136 527793 470
278886 129567 443
944949 308010 525
180089 97769 383
812906 119001 509
275859 170487 443
456280 174658 449
271202 107019 443
43503 621399 470
360869 883531 525
377382 791269 509
569029 54150 470
68573 865705 525
423150 844214 525
890831 369639 525
444381 858508 525
28834 703789 509
268233 744479 509
628816 989804 525
27208 863070 525
134004 739848 509
453050 140066 449
903472 217710 525
217016 903930 525
45824 248653 443
621182 281602 470
217438 241631 443
342412 704837 509
151433 936393 525
100081 999986 525
897601 243484 525
217059 198180 386
627835 509114 509
930513 610437 525
990485 659760 525
793035 534366 509
937380 954281 507
520006 134223 470
114677 72044 354
98025 894367 525
710590 792295 468
292174 917374 525
304353 23723 443
46151 583744 470
356624 831590 509
342158 159928 443
472241 249310 449
243670 987533 525
190526 840080 525
929824 909289 476
924552 939273 476
507943 880562 525
936342 539821 525
231510 329318 407
537127 558513 452
610249 783030 509
907610 629473 525
276799 491757 449
909817 903422 445
512295 223731 470
231702 260104 381
534059 503579 470
237548 798600 509
408127 850163 525
86674 52678 351
448618 525768 470
828106 892158 525
815505 590757 509
532714 478782 470
988790 648436 525
878234 975450 507
870726 244992 525
225406 551835 470
288784 610827 470
268840 149164 443
577708 13607 470
55733 579455 470
886915 776623 525
577869 571651 390
58353 998385 525
232078 795453 509
287329 652945 509
231416 713202 509
379259 246217 441
21293 26523 282
373988 762864 509
912834 566532 525
538354 190505 470
454724 893014 525
527458 789629 509
192679 401367 443
767207 180257 509
39164 957872 525
18759 123889 354
95427 787877 509
279925 185396 443
344964 919676 525
611381 828537 509
967544 232950 525
943204 867327 507
988673 342419 525
994632 769345 525
217993 989552 525
768780 697329 504
347011 783240 509
321195 206642 443
463714 473339 413
48280 644504 509
484035 180801 449
667898 799454 504
211682 756502 509
798254 335539 509
563099 392668 470
690378 742089 504
153031 919040 525
994922 854592 507
837528 79753 509
964406 965162 352
672771 416812 509
44864 232071 443
1389 483444 449
691143 245598 509
479361 210496 449
494363 384804 449
109006 537087 470
594140 948174 525
412130 869211 525
677011 546078 509
164469 568032 470
999796 128792 525
540901 734537 509
626391 672029 442
449452 624067 470
995100 533485 525
24180 821456 509
479779 908764 525
226154 205865 386
602773 866733 525
150456 977378 525
531199 407726 470
209316 109873 383
957276 338819 525
143749 68509 375
684353 109343 509
633852 979777 525
248736 963822 525
296880 718258 509
207628 650455 509
252117 80246 443
359655 326041 441
405981 622727 470
787353 333424 509
385491 847086 525
514996 625557 452
540286 497081 470
330240 625545 470
788959 586242 509
23530 268311 443
845647 835792 525
890505 891783 326
38614 81502 351
111470 909725 525
357736 465924 449
198226 522618 470
452738 716610 509
896443 640904 525
839553 263378 525
882061 758496 525
727378 874075 525
683818 178862 509
260696 982879 525
970873 534225 525
447620 533357 470
433002 568468 470
797541 559905 509
524253 44098 470
460869 706416 509
263010 790237 509
633005 454430 509
788041 752303 468
