300800 585711 470
644565 612975 509
660299 633764 429
76395 58630 335
960390 451245 525
936328 437286 525
67577 45098 340
675264 870026 525
800276 662126 504
358643 317717 441
777401 232067 509
47516 449410 449
165689 684457 509
500093 865313 525
323377 32132 443
7092 684863 509
793713 107977 509
708471 864765 525
120009 974281 525
128240 321994 443
758433 561907 509
906365 809202 525
858159 74115 525
961599 472036 525
540662 609833 452
589923 609047 403
319142 457496 449
419612 152380 449
678820 707724 504
15007 284052 443
678419 630183 442
810284 594943 509
164020 17868 383
27863 555872 470
704097 995726 525
770643 328807 509
535425 875861 525
262387 997451 525
212606 411651 449
689619 691886 336
652189 215822 509
820767 527465 509
186129 646917 509
977577 562975 525
776905 728579 468
718689 692249 504
621388 485454 470
272878 214921 443
377447 677660 509
904616 753370 525
497084 980528 525
943050 37869 525
76900 665856 509
784954 433447 509
935355 520214 525
171915 59553 383
163687 536686 470
532527 191910 470
325022 282713 389
251467 612306 470
742672 129522 509
191856 498325 449
359784 608954 470
285581 644095 509
210037 402475 443
788493 740682 468
682707 572475 509
310331 929306 525
322264 946548 525
349266 913308 525
341292 502848 449
2292 826892 509
157275 315575 443
812881 846158 525
19574 68690 340
149946 905377 525
821199 786003 468
859708 800946 525
437074 151018 449
775208 514443 509
149883 684015 509
364421 693083 509
285029 841662 525
1111 566138 470
697631 417837 509
352995 102698 443
77839 905094 525
734900 269824 509
823975 774852 468
438806 780358 509
516466 939074 525
215794 597036 470
581020 982972 525
938073 729927 525
633041 673762 442
380323 358553 423
74211 784568 509
270585 256376 407
836146 768688 468
268044 643698 509
121008 624173 470
713978 634093 504
55023 981913 525
640089 647876 416
624556 761901 509
597765 411796 470
31096 288344 443
646067 833070 504
629576 96749 509
299565 132517 443
120119 295197 443
495985 531177 470
341566 52266 443
133466 11289 354
27284 496870 449
584760 977221 525
530465 279803 470
222597 591818 470
831555 588950 509
417056 524341 470
538065 883999 525
615311 244761 470
670181 376682 509
649226 925400 525
10575 636762 509
325963 606784 470
177515 20605 383
847857 216137 525
73118 428890 449
106961 710137 509
729705 478048 509
400699 378157 436
681003 365356 509
296434 155813 443
472793 24446 449
976112 517735 525
879134 426826 525
888421 9553 525
81071 183715 383
516008 405605 470
306194 130684 443
229035 257963 443
971257 881130 507
780301 880144 525
175769 528742 470
29990 40545 324
601556 857540 525
269941 660202 509
880783 881777 326
275500 363971 441
860328 109358 525
437545 396219 449
783055 385844 509
180442 283721 443
147932 646795 509
812801 662776 504
128454 730458 509
534601 384267 470
991103 517829 525
863097 742559 525
75622 351119 443
827428 135601 509
782492 535748 509
933551 231112 525
760056 202405 509
76300 652818 509
256839 51762 443
47855 758020 509
334210 799612 509
259654 421308 449
6292 690815 509
877298 522150 525
941359 209577 525
834946 676213 504
893767 912685 476
455543 667566 509
221798 799370 509
621478 849823 525
341308 431262 449
318606 782406 509
724573 157232 509
610299 368970 470
793383 891478 525
102782 617303 470
987741 169538 525
462473 835706 509
455472 652816 509
389326 332886 441
519919 996662 525
2937 815040 509
399917 415483 449
902286 744315 525
154122 83078 375
942711 453120 525
13208 93143 351
402929 925861 525
400074 788324 509
80157 765777 509
175304 568733 470
387087 535302 470
409729 643907 509
185851 72231 383
735823 675947 504
169788 675013 509
738453 623332 509
452280 541207 470
346255 584469 470
535156 24103 470
981129 330220 525
557921 438581 470
177477 132739 383
181995 834675 509
544893 1539 470
7498 214708 383
192158 60301 383
278854 212984 443
272237 502633 449
996016 403653 525
119347 271141 443
375950 694687 509
779285 705102 468
501809 281820 449
408629 117554 443
225079 132916 386
609307 349139 470
641166 996801 525
340584 409016 441
