701036 879105 525
752555 830502 468
584817 736972 509
510278 689548 509
654218 490631 509
681286 937727 525
998636 360899 525
143002 955123 525
503890 503955 258
903058 378989 525
90169 572743 470
446381 21978 449
614368 159373 470
866559 92318 525
463851 893872 525
851853 826569 525
778707 388337 509
17269 706498 509
139470 112412 349
992143 418466 525
182413 752330 509
432798 634954 509
367383 135694 443
727542 888388 525
911711 777535 525
984431 947919 458
925590 120747 525
333344 272987 389
862562 847782 419
413855 961695 525
846232 14355 525
202024 702801 509
871209 707698 525
325898 854076 525
124292 354397 443
778401 499834 509
207286 740161 509
920072 417674 525
825128 11207 509
877037 320645 525
267213 88245 443
705915 879462 525
203616 371106 443
483119 688830 509
813214 243235 509
278512 381810 441
385519 745179 509
804269 642459 504
455304 515234 470
778908 451938 509
500901 14550 449
275036 977375 525
689008 893175 525
573111 292253 470
402085 508458 449
255647 480757 449
984460 850012 507
429621 623451 470
153595 508715 449
518138 407509 470
999191 409361 525
716409 891973 525
476904 933232 525
534320 685998 509
490783 550690 470
963736 164039 525
67133 942069 525
777803 31591 509
121761 403082 443
87991 487423 449
114114 258971 443
775571 180580 509
995699 387733 525
610040 571239 434
446620 685394 509
747627 733822 424
19781 237673 443
616177 875268 525
489975 681458 509
902264 814378 525
325151 622146 470
449352 916355 525
219424 930816 525
892926 550230 525
495373 730223 509
823106 360649 509
233909 963196 525
347026 103627 443
267687 643936 509
930162 551874 525
519128 781756 509
502980 874959 525
741464 202385 509
424532 9920 449
64671 528806 470
87876 134056 354
203821 215290 373
45296 455796 449
879180 512796 525
112418 622682 470
497475 297543 449
865996 949534 507
743981 959210 525
177734 869414 525
402499 73434 443
601382 135467 470
359425 802191 509
74156 979485 525
777528 492004 509
41643 691309 509
746582 35773 509
249072 228430 443
553298 244632 470
329286 347660 441
10452 822941 509
883591 288974 525
343674 718953 509
423271 663456 509
147148 733805 509
797370 134049 509
570415 361079 470
999532 706456 525
473366 411227 444
665769 615586 509
867196 708454 525
602147 694993 509
2811 359840 443
787719 372834 509
628146 624446 509
452639 757577 509
168337 659300 509
686638 607626 509
130565 434068 449
939038 609556 525
932045 56773 525
965718 868578 507
658195 833785 504
593581 660508 509
898082 982248 507
263726 864931 525
463013 818210 509
895853 269932 525
204796 122120 383
744369 216850 509
495069 258802 449
112582 494877 449
291234 508557 449
829235 149143 509
999808 59449 525
353779 627274 509
753318 129038 509
766624 35634 509
292727 717735 509
179428 69231 383
214182 899578 525
272093 893283 525
406486 510158 449
300560 266140 407
541321 302035 470
361759 342432 441
882561 350862 525
416783 444529 418
795791 654899 504
668049 887416 525
319147 518164 470
824892 435926 509
287586 632608 509
9025 294309 443
552315 198066 470
307387 92396 443
596660 97802 470
692448 839966 525
777371 429037 509
717137 434631 509
466489 789681 509
950821 403011 525
600073 863537 525
230235 838436 525
20818 972547 525
390040 325725 441
172710 33784 383
854436 836499 525
889129 98243 525
462086 918825 525
292120 643633 509
329674 847465 525
264163 339321 407
471006 112242 449
174414 603976 470
207842 407274 443
564557 46804 470
883412 461958 525
896686 815924 525
727250 262435 509
516353 356453 470
545781 508874 470
184466 817260 509
566247 15926 470
7296 668408 509
301549 247810 407
68897 429128 449
251462 511053 449
661505 220044 509
224492 416332 449
172427 370164 443
748977 116575 509
729005 649604 504
859356 114948 525
147071 203950 383
444667 436227 400
56921 861151 525
699545 217811 509
198674 985072 525
334574 413575 449
949557 496586 525
530521 410652 470
844551 14250 525
574054 914936 525
198321 755648 509
543380 395593 470
524668 786819 509
948642 226396 525
532032 480353 470
746502 145269 509
353455 750476 509
254347 896047 525
979379 273559 525
894817 553481 525
179015 824233 509
83083 242021 443
74778 931312 525
114010 157794 383
571333 121816 470
316870 443748 449
641240 984266 525
648224 591006 509
441911 51552 449
951423 779392 525
