805939 152667 509
970612 369755 525
281268 654093 509
55130 688893 509
785045 717283 468
518904 893867 525
142760 610858 470
929579 695031 525
263338 824411 509
94264 833529 509
796346 959461 525
59250 842543 525
561611 141138 470
968035 243470 525
738867 22398 509
493352 436881 444
979315 56534 525
746642 882904 525
891680 980087 507
240885 404449 441
36707 302212 443
586389 505060 470
348710 43763 443
144868 747030 509
45513 148926 375
384540 554065 470
275394 463005 449
32519 669130 509
783178 41850 509
109642 27183 354
662817 281532 509
735094 48453 509
245016 890231 525
820126 687799 504
731083 543932 509
716765 792309 468
960154 658821 525
519941 857772 525
155712 35200 375
377852 597093 470
711195 412535 509
783776 33208 509
925629 119531 525
236256 46399 443
486477 465108 413
821366 174030 509
27498 588742 470
538052 665382 509
461199 922559 525
785557 787070 375
155528 475129 449
494442 498678 351
571600 671373 509
212902 945891 525
224723 735631 509
185317 610839 470
790843 247997 509
294610 99310 443
96171 44773 351
655384 111861 509
21904 132019 354
165713 242983 443
270287 654637 509
56742 488041 449
154914 49423 375
814456 45862 509
709828 795575 468
283513 315407 389
679305 68040 509
796871 167692 509
160801 997225 525
561746 816534 509
984447 117185 525
479635 955591 525
216553 561895 470
597913 135946 470
810984 360452 509
963747 910985 507
684773 91624 509
538589 684936 509
398910 721838 509
556422 330932 470
443045 684509 509
546098 230244 470
990911 449244 525
764990 696646 504
427955 277501 449
430551 706428 509
630572 835168 504
599213 767935 509
745095 851545 525
879859 603732 525
726502 428994 509
831435 593734 509
821397 527877 509
555229 395636 470
522326 740283 509
861433 572726 525
878766 118742 525
449239 98165 449
259596 21095 443
123385 544454 470
930760 223447 525
776154 238881 509
730058 346016 509
242712 62474 443
776149 919247 525
991990 810573 525
863855 324946 525
489844 114151 449
693030 759079 504
304512 105673 443
564232 361375 470
438824 274272 449
139711 850289 525
455544 72478 449
530629 790127 509
24629 525381 470
151916 379303 443
985424 267521 525
272439 103436 443
259989 778934 509
731563 76416 509
190934 768540 509
517303 781453 509
68890 183650 383
519115 424047 470
307228 597627 470
287738 917896 525
949999 457374 525
20581 810783 509
565793 467654 470
601213 256460 470
438619 866511 525
110686 896061 525
461376 923134 525
897600 310380 525
423178 390625 449
111068 165067 383
70886 634750 509
784014 167196 509
696446 830183 504
867931 160852 525
510633 682925 509
916292 252021 525
405847 918072 525
152956 152939 202
642547 873396 525
629503 819170 504
910061 494737 525
200326 228517 386
233153 429795 449
990385 356030 525
148506 529739 470
252945 703815 509
978250 951803 458
619519 294710 470
744205 911613 525
664886 853643 525
688643 151587 509
251588 404130 441
485196 528834 470
202865 851424 525
447794 403105 449
28319 282226 443
287876 672095 509
792702 236898 509
767530 719596 424
649123 227064 509
852522 703035 525
83128 460413 449
261667 786769 509
142929 812101 509
605326 260539 470
372425 959645 525
581697 883720 525
316586 397744 441
386345 948666 525
866038 445029 525
306629 743229 509
250264 667368 509
672935 382930 509
623230 107858 470
545197 877289 525
179673 144154 383
835370 169334 509
639748 205131 509
417048 946717 525
790917 15862 509
538540 110234 470
58126 189981 383
983029 592965 525
433009 720282 509
255883 959805 525
161385 490915 449
383848 692985 509
526341 375290 470
178572 8880 383
453978 246804 449
233115 906012 525
695097 280814 509
124324 752763 509
668275 971571 525
132001 417461 449
722261 211055 509
98969 977291 525
588028 733497 509
267550 774543 509
904970 150158 525
511269 66694 449
64060 970026 525
707978 826376 468
489745 589156 470
423790 749081 509
785825 832569 468
469220 541133 470
86708 621122 470
802288 666396 504
345045 23596 443
25830 142257 354
229344 26077 386
209810 254017 443
166287 465488 449
951603 860529 507
520521 214108 470
980514 768727 525
793070 663717 504
807977 334641 509
911310 995167 507
402654 566332 470
916211 119759 525
110807 559023 470
859412 793279 525
184501 434948 449
976855 215917 525
666094 843162 525
392157 197877 443
499313 443755 444
432138 110978 449
353337 114483 443
861725 893151 445
793247 468734 509
484039 977071 525
791452 172814 509
116949 510584 449
