318555 266127
96814 821956
580043 573214
182531 425142
398137 392256
419479 740797
653937 543996
49880 853522
465065 997329
522709 601866
975199 809315
754505 947231
143421 343744
905144 932893
604856 112917
530213 722052
424659 817787
44170 524851
904835 793461
868809 906898
541877 959281
712970 975330
481036 525907
944837 523673
458847 286424
351126 996475
874055 571808
621880 1538
669924 301446
651642 397089
687896 608415
964108 196597
849930 976532
573485 157339
10795 637424
277380 76382
245316 717464
561065 989880
145723 668380
153462 793662
251105 387270
391560 99797
795000 461790
204912 201043
862517 518220
348018 412127
583403 596572
435052 404843
794232 69032
208574 936218
72689 875127
390903 7016
593460 579039
999301 470197
283862 440756
157530 881148
416905 230647
671400 234903
457978 644502
282990 976843
793973 288704
133988 491192
931701 756574
766936 48736
896846 497530
526266 102262
988144 719891
483181 877856
192464 417585
499081 793270
56269 606274
928746 512807
659451 568137
774854 529290
744469 113462
580573 137887
86845 792501
4022 523965
557884 757652
207993 61838
895779 367236
390332 993990
610329 970807
139435 310717
750297 97428
551126 948859
765728 727238
37700 426300
284671 862066
677927 253684
146127 809019
816162 418956
318498 439045
745672 699889
4535 614815
820236 876551
137863 492809
117331 939119
983272 270884
512523 598639
655071 731949
225747 46670
419782 333658
851861 118984
471318 650748
556422 554034
338562 535819
311366 342490
348412 887117
361034 240288
919005 748350
626744 2245
926733 740620
688166 947114
194515 808858
329882 261092
538962 61392
64525 684019
599180 823853
107721 191983
232245 721356
544548 397517
418839 725968
655005 220673
654060 627115
996260 265741
242189 492631
984879 916648
738311 403799
580595 264789
391114 6152
140087 682559
760576 549097
972715 221081
518243 775208
584048 952834
804153 686117
128426 680156
704366 261379
139632 121846
491967 328852
53039 478531
488203 60554
233909 310401
6404 214869
101728 308264
344377 114397
162630 934632
355816 747750
843014 247213
712721 587948
502179 89239
885897 915140
313006 883926
573961 29316
203002 1624
350197 463238
127629 425069
105869 816247
358159 726604
707714 935345
125954 59243
695461 942672
689455 446614
763136 898757
372551 385558
403158 705499
877249 14622
921686 101370
419207 714915
922787 421344
404528 142884
553894 914155
426868 976217
906652 215487
847381 439872
178863 684860
636948 771631
216110 692450
363502 683559
98385 865715
903170 223906
551813 485938
380078 598369
565338 586402
834172 929120
340154 879512
353199 521514
667482 985759
236328 187747
34069 893657
96611 487539
390491 795666
221316 892923
115366 932384
919838 783394
415572 606036
25597 636709
376152 189037
940313 515374
668141 883394
521717 831002
546404 375320
504087 758263
746629 784954
159447 37911
312247 466502
942579 282300
592978 432278
329358 209085
980619 608239
539425 560376
494779 821668
