189821 647371
162513 52850
465785 833992
473219 915923
18230 73174
487152 36649
842147 887092
913433 74659
232528 969350
372972 34821
696534 118271
915036 355933
323506 335839
392230 704177
682491 441943
977309 65952
814754 13398
324942 204632
339783 60070
788165 819668
901277 907008
69152 830969
377480 833968
322396 321904
43211 880277
693242 324722
781643 47269
233373 284844
896356 598144
473280 141555
443981 11532
597695 332743
332499 771374
602220 397779
801994 784797
162009 183136
439981 672701
732521 875222
230112 985977
87212 399094
438553 397021
154337 827407
378938 336775
371413 568884
453650 634399
89470 844472
744524 887364
411863 864746
537475 805011
333224 359412
306062 330180
624941 749759
180402 70247
572684 456936
291040 91320
464432 99113
908299 921391
381070 852410
561408 970659
719952 600170
144272 438217
540314 692829
176530 895100
743877 13829
706946 182443
251317 539993
740871 450335
274493 487030
332274 716151
66182 514442
934157 386859
655762 616728
760400 711383
240624 477613
74146 12676
29143 337536
287529 629545
898851 479406
376829 203604
254288 702538
111916 848387
309421 761684
157782 522442
218955 430973
47443 742955
861887 573684
560701 657434
371691 625491
607455 851141
561406 929913
425927 566532
480406 928318
855815 33474
911672 123445
980757 789168
918861 494519
226634 988915
976770 210047
139071 646355
541041 878067
836682 166803
22889 679486
530373 23944
316745 912689
546176 1923
244221 18718
92008 883134
822609 967193
694719 805612
804082 271809
720186 390381
155204 448955
338434 453199
765683 884080
320835 575469
809335 286352
593372 87068
816790 592725
732487 862520
698377 828753
352658 923629
177475 688732
562168 42814
929667 553439
376738 355005
184025 839677
41073 207257
666070 762471
716252 832501
329347 156896
132836 704141
758707 423609
729173 391999
778888 891794
372353 206088
603171 567468
68689 367221
694380 476514
584685 404740
451453 54438
613591 363954
2136 388204
885091 610153
19413 655156
557393 501631
21616 980559
884708 669104
59646 653202
621912 38731
194307 480598
772331 253947
572364 232278
465419 910313
649643 611835
771717 356176
702986 994520
775929 660173
443952 772389
452397 377471
531685 305039
314917 241266
986529 369699
993607 469377
126209 840123
598696 918262
851930 317280
501740 179382
461852 639032
999590 669981
565939 99745
976510 390981
770045 92184
74164 855806
576720 80029
558341 24607
79518 562596
809614 330104
3179 659667
806984 895422
617844 705048
81008 7245
808970 975242
693478 572158
777201 964171
975923 992972
368585 479009
333288 564451
168275 386896
583547 763875
442476 343393
538120 601434
67455 281280
809187 539089
239185 956523
834588 886730
903399 316637
288526 758930
667049 238979
708528 169635
432033 81942
499270 601457
595161 744656
795590 392587
269445 315055
799323 243313
593442 141445
326879 669525
578575 889810
641039 100759
314322 476226
299361 463186
441317 569547
396046 646004
906645 868328
286348 13963
543414 251458
31515 838886
5507 527270
553338 160390
974323 46208
341883 824098
684697 139657
644525 428422
284179 544552
652186 377828
