175831 444059
265285 713552
639172 119479
287074 396155
753733 370429
58640 831483
863853 57924
304169 841964
844975 474220
249207 253167
364290 443565
175148 223544
397260 111216
142241 276751
251014 6480
699311 837811
636639 316732
505035 103486
154385 125125
254245 591995
21530 441279
156220 116315
706413 6993
41677 497636
322902 923531
785981 550495
245255 376763
630291 674503
202212 51838
904020 158197
654441 70650
315900 759357
865043 637284
548619 635728
767350 311970
939686 902030
732614 336252
734015 812069
663749 330639
58611 193087
173754 538338
219191 286260
295432 708029
437062 746119
155628 996413
220248 705264
578703 411640
793728 755368
216175 129558
199813 380483
256137 279423
522293 43089
491792 885015
343041 67530
691325 912732
629706 537099
718149 193017
895315 364092
583661 667059
454449 729909
486978 27771
994975 511961
468210 603381
278879 722963
940177 515479
22853 467112
723321 847189
22384 262120
344518 669128
280577 807714
186828 918681
382067 32602
363767 790983
830111 465201
234312 257125
667843 880618
43802 377032
984454 898396
402648 878947
862790 727401
509350 669232
539358 240090
574738 243614
858640 226691
68629 193499
601511 93801
207844 994558
466116 384546
332911 248025
284785 620788
799858 214703
169391 594600
352404 223693
70486 530770
103071 515284
416745 479694
335187 818980
859894 54143
654295 639931
229883 395317
789739 788598
341577 498651
47733 362213
878774 185988
549672 861862
39704 319320
22291 923307
495781 589172
12970 956241
869485 47581
64327 21580
817165 947621
534561 557289
911897 226953
743854 64581
500554 421039
692754 95372
522361 887494
695347 1388
628165 93189
84433 990717
73170 459300
288770 37562
987343 520011
357678 640556
776796 738520
943069 660042
12244 485230
792673 353032
635301 828427
250867 304532
828855 321995
530911 781162
957851 170053
332296 884718
580879 993058
770015 78860
539668 456115
367660 897070
239058 78666
746903 259742
701701 41514
407267 884431
440571 335388
136443 543302
940073 989429
775042 440457
843168 818546
186329 531389
868451 359475
844113 923911
973338 759568
690189 39374
236078 260368
545317 857655
917678 324657
679267 131015
439658 214341
381507 125577
71320 377709
587903 450621
452559 139666
444385 819936
580673 538083
292507 941412
503100 744531
87153 410399
534559 588158
991878 418435
407902 357494
649126 337035
765309 772886
108500 207603
415001 926367
276583 588898
729402 521479
365935 915578
131677 621854
137768 798230
677871 853200
713673 228587
496598 41847
960268 862648
61489 276793
486511 965060
276190 558406
139210 466174
235250 184767
390728 473112
74810 489149
516659 2276
413779 885446
129430 105207
850377 543314
70629 371096
169354 888778
397310 857081
626766 678652
41652 636273
771057 747513
177574 330640
828484 486178
688831 232194
820538 209894
169508 791915
354903 950099
915182 657208
476981 469283
379288 434741
727206 738827
232105 526329
360646 218541
326928 998500
493101 146080
168355 370106
458868 883140
954102 539844
439675 432041
672830 288736
289987 179829
971001 989999
359420 18336
26961 292110
958682 573535
943107 737368
219719 104935
968201 33926
860062 49138
362067 420415
882727 795667
381609 262217
330410 682440
233486 898142
729612 495369
720109 437072
641571 177078
370583 513342
682031 605564
356893 330749
302488 566352
30446 42075
763774 777944
213965 855752
691334 357835
852596 668935
760780 124699
70766 428525
374089 942668
77801 112902
422396 983548
442358 894949
319977 430985
831774 91406
