218470 460189
795139 122565
839625 275745
73231 729669
89074 709479
647845 783165
969103 511329
756500 955827
694360 99804
427115 528900
685988 836708
310888 36576
641778 577835
139233 538047
567657 958543
270684 44644
523967 440648
843828 992806
305210 826179
364383 900211
204255 440411
289871 510924
892026 328262
59661 394609
256457 859682
835013 569078
408046 99257
133734 829129
194843 694524
197908 371192
469677 80657
348562 227585
579510 202467
870953 177989
482131 979649
500907 302449
476878 948883
82398 55743
726842 481343
765974 263557
92938 210337
825774 649437
5073 680999
43679 118429
102434 844496
235447 553404
960783 178413
148146 422518
49438 49074
776612 15285
359381 993865
948405 339486
973908 573073
255627 510114
379736 258277
210227 661443
852407 317929
400456 147489
674671 989333
178764 718309
306884 139641
882205 334264
647826 636877
433689 251843
943521 18638
214816 237144
980425 710040
432769 306815
864845 741927
484062 412482
433531 721947
399094 349252
118127 83854
32456 905922
983020 534736
709176 753576
348964 726463
31289 296043
883417 275134
639807 255892
870721 350245
968762 875075
287841 304616
205157 361039
19835 105854
156057 107482
847604 135500
17008 193691
526565 760805
657014 459926
987117 250216
13986 677136
750507 975914
236242 95015
202363 573934
514090 936916
411980 394705
227320 950278
713224 717437
881059 600833
453917 445907
348957 448029
130212 27147
909023 977730
217978 204631
860119 989416
339415 743977
90052 870888
874612 870603
781196 140557
291658 466481
471885 417885
210380 91993
185419 989568
287706 605563
33605 570330
472617 22799
957570 988847
286159 226897
680947 905330
473012 222487
378771 483166
594385 112643
18814 309580
899220 413139
317898 155654
452272 689391
884122 365673
788943 205563
982285 47089
212427 676736
443623 6429
688785 629500
955985 570031
146174 100851
631554 528689
324308 195063
211141 593922
66507 349221
68050 878761
406977 449884
732894 476701
543854 679665
341904 991611
301477 99870
578836 124382
161948 515451
668653 226347
84773 740246
98473 248142
773437 766834
454261 532494
995305 925413
809528 950600
668027 322024
476328 155112
830686 267562
612270 617162
668334 828600
805732 825575
992343 447768
24677 460669
505153 643798
396911 747537
93592 134607
429529 624152
847243 133984
89422 552148
511299 136949
777636 387024
525232 275046
98915 331665
199431 172944
867342 217039
511954 193964
236061 491131
704217 165898
327666 97812
791358 37655
454811 755605
388527 39022
391524 617333
856403 201694
737807 313232
195358 651054
560543 786772
601928 245817
764861 558424
535045 467243
29273 677315
738931 551376
891844 114002
389759 588990
909590 119953
800517 718278
882756 682721
298926 940626
274682 42994
610665 588993
343036 371151
42030 390619
420856 936226
732553 266236
182631 787486
631551 357477
927376 237749
893104 156554
544335 902268
805143 253684
565250 827253
128183 659481
558764 616237
970415 944944
166828 61117
683126 933678
263138 219165
396066 429156
796322 255264
282622 175516
895628 997630
307265 727042
360576 398760
547118 576128
115413 999756
763679 180085
645927 329434
838420 450325
539838 568120
815767 739101
881554 404155
277304 986455
505773 748632
909852 798524
902576 151566
928708 998668
14874 891224
682559 721239
86154 701730
335579 13788
838222 332696
855456 183897
599866 628432
2433 261691
781869 153843
370755 746380
979817 435909
923678 129190
123972 591874
424972 170693
593590 317587
64746 571020
816350 795107
13673 95676
983432 165767
624897 646473
23274 423683
76850 369605
467726 324225
562132 587558
607688 244387
688042 783577
484436 142718
327015 236105
29939 847539
622116 319780
786849 390637
884079 591525
255347 322142
22631 692336
764057 951594
