880835 984019 507
745581 154512 509
929254 893411 476
899522 671705 525
897971 331052 525
947998 866290 507
450281 394800 449
775204 766628 468
929037 386567 525
741601 215474 509
388904 758198 509
399435 274668 441
687138 150916 509
303518 90479 443
480709 326852 449
69948 18880 340
340928 386695 441
838949 228034 525
646260 876826 525
105598 660182 509
580917 829539 509
511087 708062 509
653529 225550 509
217065 658452 509
956666 108750 525
585372 229447 470
102758 146179 375
554321 738947 509
676069 872905 525
829554 246649 509
479196 914071 525
109408 781754 509
140011 176239 383
297917 19729 443
998446 40992 525
884177 653895 525
819072 601353 509
981624 101072 525
161837 571450 470
736765 623659 509
808933 632130 504
507652 166765 449
568493 745698 509
16119 934423 525
690581 99741 509
459118 779360 509
587687 545067 452
601446 626183 447
963885 461716 525
512349 90901 470
518713 730663 509
447112 107668 449
461514 161699 449
522413 254493 470
50378 187175 383
140859 652175 509
594366 700154 509
214012 230913 443
235054 722739 509
831872 125205 509
861045 907814 445
250480 627451 509
617285 709239 509
833528 628789 504
608645 865236 525
856546 160791 525
414639 903079 525
120856 8082 354
40953 979025 525
669725 193190 509
357171 406734 436
333553 622460 470
154904 2007 375
197552 425281 449
512340 694476 509
739298 984849 525
104007 745188 509
183298 914992 525
228591 903609 525
480975 407173 449
797180 790168 468
945744 837731 525
218687 387285 443
899543 165845 525
162148 370032 443
175500 23600 383
951424 723381 525
363989 713483 509
261596 739271 509
179673 55957 383
234705 516646 470
773768 100971 509
933914 169133 525
508099 768290 509
174133 177037 334
725306 619206 509
761714 832596 468
857811 301161 525
170967 876341 525
82537 112284 354
572631 772481 509
811995 290392 509
780929 931102 525
473876 894731 525
351928 385510 423
437390 354264 449
749404 639159 504
684398 641707 442
99826 616674 470
797145 129171 509
823502 229642 509
253584 674855 509
498739 929761 525
202533 791900 509
271499 450199 449
243530 923161 525
844248 410879 525
327527 315204 384
74256 891598 525
251397 382691 441
324951 16214 443
135377 750789 509
416589 5810 449
115882 614447 470
620407 943515 525
226014 918584 525
85863 638620 509
331069 449741 449
149315 804171 509
850155 692824 525
401294 237976 441
529167 944062 525
577620 612104 434
610709 564020 434
201006 408848 443
874089 100678 525
125325 408911 443
26520 945766 525
416804 201 449
747329 750725 393
367230 457828 449
518985 535034 408
248263 73177 443
39047 769195 509
243038 784301 509
514172 603106 452
664289 827810 504
147713 14091 375
210223 673578 509
621024 252155 470
348781 315285 441
254318 90012 443
214540 701425 509
323737 378407 441
640463 418590 509
76514 307609 443
946282 572418 525
338076 616503 470
58914 809523 509
243225 847940 525
732791 527623 509
151943 924888 525
517485 387171 470
72489 326045 443
243244 138709 443
623580 528403 452
496352 460093 444
710212 926978 525
793330 853374 525
504746 11289 449
627140 714790 504
188835 832539 509
897009 408746 525
639759 255215 509
132940 620523 470
747925 268923 509
183431 148143 383
209144 705112 509
726948 101112 509
968517 146139 525
737578 651177 504
151924 889409 525
19643 82659 351
382772 602862 470
981120 256863 525
790499 576645 509
596099 179275 470
599673 331957 470
897274 917693 476
399145 801006 509
725484 376586 509
471568 737175 509
900280 191130 525
240582 553339 470
446126 465581 444
958754 817243 525
381612 429420 449
73190 708648 509
503363 935146 525
813990 442869 509
130084 242638 443
107749 36862 354
413143 889660 525
358704 628890 509
463503 876885 525
698758 777943 504
81004 878167 525
818180 891828 525
295395 604781 470
552057 225656 470
536775 381544 470
128530 298563 443
102300 12775 351
137750 526516 470
905770 120279 525
278675 868425 525
896772 379232 525
601860 694165 509
491536 532798 470
756599 989401 525
928928 80802 525
741084 277194 509
73862 992493 525
630131 718083 504
62253 148857 375
925397 602695 525
704956 515245 509
