128917 463114 449
46890 298355 443
45759 896396 525
407178 859177 525
363591 712195 509
318751 77534 443
159941 822948 509
205280 815059 509
795785 447122 509
14150 843879 525
180824 875905 525
627041 504898 509
970335 35618 525
106942 254047 443
29906 396572 443
196199 647987 509
254968 26988 443
650360 27037 509
69221 817096 509
495656 876047 525
771106 153003 509
867946 414745 525
150092 696854 509
56674 255363 443
805104 549610 509
390513 4663 443
499004 170265 449
253955 345037 407
27796 17591 308
47300 112874 354
911553 419621 525
873247 895823 445
661246 893343 525
410509 657291 509
37889 557005 470
242481 996330 525
634780 358676 509
62193 132369 354
967786 788903 525
981348 534337 525
723791 363444 509
979267 163034 525
69606 870526 525
378718 962839 525
478840 576870 470
665646 170371 509
320638 886131 525
676628 951203 525
619771 206090 470
443918 409670 449
530716 258492 470
588792 747057 509
131611 312412 443
600946 583471 434
716406 295943 509
920324 517565 525
734898 734905 137
261869 355119 441
489319 820853 509
628665 557052 509
662288 379108 509
186757 459444 449
113575 166381 383
462451 500647 426
897018 88602 525
14379 328450 443
543491 927376 525
818315 738566 468
168688 330271 443
807552 283542 509
197531 674522 509
909031 788544 525
672898 357951 509
891477 561937 525
35171 374995 443
409512 484355 449
203339 300900 443
484508 944169 525
871247 909194 445
909179 987377 507
842959 730978 525
77449 373437 443
477896 757116 509
376097 795835 509
425488 165067 449
594543 379260 470
694792 193225 509
131074 308465 443
771449 144628 509
513110 587355 452
160069 551225 470
801715 860713 525
133166 717190 509
686920 243482 509
856450 399512 525
783144 146536 509
147412 88659 375
957171 372526 525
976179 129901 525
623698 559594 447
952659 305632 525
397074 168469 443
686317 878775 525
862384 726099 525
939604 84183 525
870968 94554 525
470799 201502 449
694963 534028 509
946679 496085 525
224567 90909 386
989255 770126 525
497229 206034 449
479704 813873 509
226453 847908 525
741276 80201 509
475830 404491 449
951619 982490 458
541724 802782 509
667135 426140 509
913083 717903 525
590096 276413 470
494911 280291 449
867825 613976 525
13712 257924 443
251799 767074 509
866208 374412 525
470960 910287 525
196919 163913 365
158393 777509 509
358615 302625 441
683605 966020 525
959156 901727 507
769077 128082 509
590410 332706 470
829286 510658 509
863864 172932 525
366741 901472 525
944647 724740 525
124406 404949 443
152837 835257 509
652265 679587 442
740318 606407 509
600513 944617 525
922681 251914 525
70331 544687 470
732402 721322 411
827018 158711 509
21007 839611 525
234676 749844 509
974210 432649 525
588069 997236 525
674416 455967 509
65313 429249 449
324677 358987 441
807713 880578 525
855499 721662 525
829322 88977 509
430215 265439 449
76021 259898 443
200307 814654 509
852982 207774 525
600350 665203 509
558252 94674 470
932228 160399 525
523447 437104 470
280657 915830 525
832051 96831 509
316080 797776 509
942990 523351 525
609416 304389 470
721877 185044 509
633676 881563 525
819982 340870 509
500663 280058 449
658471 532040 509
166764 174444 347
693165 981427 525
767976 54335 509
788047 266278 509
671667 382695 509
823087 663900 504
532350 248384 470
555521 119931 470
298094 435126 449
954949 500645 525
662236 55068 509
22506 529863 470
287852 139637 443
371088 356961 410
799565 92248 509
537249 720415 509
882025 503488 525
891370 197169 525
354054 128197 443
93518 949613 525
566377 398460 470
896152 195542 525
249258 28733 443
873043 188471 525
579033 253809 470
583427 234999 470
208517 728886 509
206508 45345 383
589919 704214 509
483459 911070 525
62254 439624 449
488985 33590 449
846020 355788 525
866937 157951 525
406486 87159 443
83809 398337 443
801854 120190 509
704361 908490 525
669501 910134 525
39775 119872 354
638245 79745 509
558344 859080 525
139097 32461 354
56416 106171 351
964771 538313 525
373822 135254 443
589253 964082 525
198236 242068 443
55861 487069 449
671662 157779 509
155065 395203 443
741551 12247 509
877505 882348 357
964194 221335 525
196339 504622 449
96709 782975 509
925538 344355 525
306714 62451 443
853578 116297 525
78115 272302 443
243532 542802 470
455834 769077 509
